<svg width="18" height="16" viewBox="0 0 18 16" fill="none" xmlns="http://www.w3.org/2000/svg">
<path d="M9 1L10.6839 6.18237H16.1329L11.7245 9.38525L13.4084 14.5676L9 11.3647L4.59161 14.5676L6.27547 9.38525L1.86708 6.18237H7.31614L9 1Z" stroke="#54DF6C" stroke-width="2" stroke-linecap="round" stroke-linejoin="round"/>
</svg>
